An Introduction to Statistical Learning (Non Official Solution Book) - 05 - Resampling Methods
…
Degrees of Freedom: 4999 Total (i.e. Null);  4997 Residual
Null Deviance:      1484 
Residual Deviance: 813.8    AIC: 819.8

Obtain a prediction of default status for each individual in the validation set by computing the posterior probability of default for that individual, and classifying the individual to the default category if the posterior probability is greater than 0.5.

DefaultTestPredictions <-
  augment(DefaultTrainingModel, new_data = testing(DefaultSplit))

DefaultTestPredictions

# A tibble: 5,000 × 7
   default student balance income .pred_class .pred_No .pred_Yes
   <fct>   <fct>     <dbl>  <dbl> <fct>          <dbl>     <dbl>
 1 No      No         529. 35704. No             1.00  0.000446 
 2 No      Yes        920.  7492. No             0.998 0.00202  
 3 No      Yes        809. 17600. No             0.999 0.00138  
 4 No      No           0  29275. No             1.00  0.0000198
 5 No      No         237. 28252. No             1.00  0.0000728
 6 No      No         607. 44995. No             0.999 0.000859 
 7 No      No           0  50265. No             1.00  0.0000326
 8 No      No         486. 61566. No             0.999 0.000649 
 9 No      No        1095. 26465. No             0.992 0.00844  
10 No      No         954. 32458. No             0.996 0.00444  
# ℹ 4,990 more rows
…
