Machine Learning with R Notes - 5 Generalized linear models (GLM)
…
predict(ridge_fit, new_data = Hitters, penalty = 11498)

# A tibble: 263 × 1
   .pred
   <dbl>
 1  533.
 2  553.
 3  620.
 4  487.
 5  559.
 6  440.
 7  446.
 8  453.
 9  620.
10  615.
# ℹ 253 more rows
…
collect_metrics(tune_res) %>%
  filter(.metric == "rsq") %>%
  arrange(desc(mean))

# A tibble: 50 × 7
   penalty .metric .estimator  mean     n std_err .config              
     <dbl> <chr>   <chr>      <dbl> <int>   <dbl> <chr>                
 1    910. rsq     standard   0.454    10  0.0647 Preprocessor1_Model40
 2    569. rsq     standard   0.454    10  0.0646 Preprocessor1_Model39
 3   1456. rsq     standard   0.453    10  0.0646 Preprocessor1_Model41
 4    356. rsq     standard   0.453    10  0.0644 Preprocessor1_Model38
 5   2330. rsq     standard   0.452    10  0.0645 Preprocessor1_Model42
 6    222. rsq     standard   0.450    10  0.0640 Preprocessor1_Model37
 7   3728. rsq     standard   0.450    10  0.0643 Preprocessor1_Model43
 8   5964. rsq     standard   0.449    10  0.0642 Preprocessor1_Model44
 9   9541. rsq     standard   0.448    10  0.0641 Preprocessor1_Model45
10    139. rsq     standard   0.448    10  0.0634 Preprocessor1_Model36
# ℹ 40 more rows
…
